[
    {
        "fields": {
            "epoch_time_start": 0,
            "best_confidence": "93.86",
            "camera": "OT1",
            "best_plate": "1HF7BL",
            "best_uuid": "CAR_1HF7BL.jpg",
            "epoch_time_end": 2,
            "hit_count": 8
        },
        "pk": 1
    },
    {
        "fields": {
            "epoch_time_start": 5,
            "best_confidence": "93.86",
            "camera": "OT1",
            "best_plate": "1HFBL",
            "best_uuid": "CAR_1HF7BL.jpg",
            "epoch_time_end": 8,
            "hit_count": 8
        },
        "pk": 3
    },
    {
        "fields": {
            "epoch_time_start": 56,
            "best_confidence": "93.86",
            "camera": "OT1",
            "best_plate": "RJX782",
            "best_uuid": "CAR_RJX782.jpg",
            "epoch_time_end": 57,
            "hit_count": 8
        },
        "pk": 9
    },
    {
        "fields": {
            "epoch_time_start": 110,
            "best_confidence": "93.86",
            "camera": "OT1",
            "best_plate": "1UF7DL",
            "best_uuid": "CAR_1UF7DL.jpg",
            "epoch_time_end": 112,
            "hit_count": 8
        },
        "pk": 12
    },
    {
        "fields": {
            "epoch_time_start": 115,
            "best_confidence": "93.86",
            "camera": "OT1",
            "best_plate": "1U87DL",
            "best_uuid": "CAR_1UF7DL.jpg",
            "epoch_time_end": 118,
            "hit_count": 8
        },
        "pk": 13
    },
    {
        "fields": {
            "epoch_time_start": 5,
            "best_confidence": "93.86",
            "camera": "OT2",
            "best_plate": "XTL783",
            "best_uuid": "CAR_XTL783.jpg",
            "epoch_time_end": 6,
            "hit_count": 8
        },
        "pk": 2
    },
    {
        "fields": {
            "epoch_time_start": 85,
            "best_confidence": "93.86",
            "camera": "OT2",
            "best_plate": "AKI699",
            "best_uuid": "CAR_AKI699.jpg",
            "epoch_time_end": 86,
            "hit_count": 8
        },
        "pk": 7
    },
    {
        "fields": {
            "epoch_time_start": 88,
            "best_confidence": "93.86",
            "camera": "OT2",
            "best_plate": "AK1699",
            "best_uuid": "CAR_AKI699.jpg",
            "epoch_time_end": 89,
            "hit_count": 8
        },
        "pk": 8
    },
    {
        "fields": {
            "epoch_time_start": 145,
            "best_confidence": "93.86",
            "camera": "OT2",
            "best_plate": "11X8HA",
            "best_uuid": "CAR_11X8HA.jpg",
            "epoch_time_end": 147,
            "hit_count": 8
        },
        "pk": 15
    },
    {
        "fields": {
            "epoch_time_start": 149,
            "best_confidence": "93.86",
            "camera": "OT2",
            "best_plate": "I1X8H8",
            "best_uuid": "CAR_11X8HA.jpg",
            "epoch_time_end": 151,
            "hit_count": 8
        },
        "pk": 16
    },
    {
        "fields": {
            "epoch_time_start": 60,
            "best_confidence": "93.86",
            "camera": "MP",
            "best_plate": "1HF7BL",
            "best_uuid": "CAR_1HF7BL.jpg",
            "epoch_time_end": 63,
            "hit_count": 8
        },
        "pk": 4
    },
    {
        "fields": {
            "epoch_time_start": 65,
            "best_confidence": "93.86",
            "camera": "MP",
            "best_plate": "1H87BL",
            "best_uuid": "CAR_1HF7BL.jpg",
            "epoch_time_end": 68,
            "hit_count": 8
        },
        "pk": 5
    },
    {
        "fields": {
            "epoch_time_start": 110,
            "best_confidence": "93.86",
            "camera": "MP",
            "best_plate": "RJX782",
            "best_uuid": "CAR_RJX782.jpg",
            "epoch_time_end": 113,
            "hit_count": 8
        },
        "pk": 11
    },
    {
        "fields": {
            "epoch_time_start": 175,
            "best_confidence": "93.86",
            "camera": "MP",
            "best_plate": "1U87DL",
            "best_uuid": "CAR_1UF7DL.jpg",
            "epoch_time_end": 178,
            "hit_count": 8
        },
        "pk": 14
    },
    {
        "fields": {
            "epoch_time_start": 70,
            "best_confidence": "93.86",
            "camera": "MP",
            "best_plate": "XTL783",
            "best_uuid": "CAR_XTL783.jpg",
            "epoch_time_end": 72,
            "hit_count": 8
        },
        "pk": 6
    },
    {
        "fields": {
            "epoch_time_start": 75,
            "best_confidence": "93.86",
            "camera": "MP",
            "best_plate": "XTI783",
            "best_uuid": "CAR_XTL783.jpg",
            "epoch_time_end": 79,
            "hit_count": 8
        },
        "pk": 10
    },
    {
        "fields": {
            "epoch_time_start": 131,
            "best_confidence": "93.86",
            "camera": "MP",
            "best_plate": "AKI699",
            "best_uuid": "CAR_AKI699.jpg",
            "epoch_time_end": 132,
            "hit_count": 8
        },
        "pk": 17
    },
    {
        "fields": {
            "epoch_time_start": 220,
            "best_confidence": "93.86",
            "camera": "MP",
            "best_plate": "11X8HA",
            "best_uuid": "CAR_11X8HA.jpg",
            "epoch_time_end": 223,
            "hit_count": 8
        },
        "pk": 18
    }
]